%YAML 1.1
%TAG !u! tag:unity3d.com,2011:
--- !u!114 &11400000
MonoBehaviour:
  m_ObjectHideFlags: 0
  m_PrefabParentObject: {fileID: 0}
  m_PrefabInternal: {fileID: 0}
  m_GameObject: {fileID: 0}
  m_Enabled: 1
  m_EditorHideFlags: 0
  m_Script: {fileID: 11500000, guid: e93fcd7ba16d440cca4fa77d57a3d7ab, type: 3}
  m_Name: LevelSheet
  sheetTexture: {fileID: 2800000, guid: 27b6ec57d9d63421f895f02f9104e5b0, type: 3}
  material: {fileID: 2100000, guid: f5806c69fb99442998737edb880bc91a, type: 2}
  sourceTextures:
  - {fileID: 2800000, guid: a9d55461ee47047da9a1f8327db1de17, type: 3}
  - {fileID: 2800000, guid: dd9bea91983144188a5d2a3d4b98bf3b, type: 3}
  - {fileID: 2800000, guid: de8f9cd7fb51940e492744b65b7ea6c5, type: 3}
  - {fileID: 2800000, guid: 322fc348d95ef4d8281ddafcefa46d9e, type: 3}
  - {fileID: 2800000, guid: 8f77da6c7ff8d4ec7938a54e9a3b840e, type: 3}
  - {fileID: 2800000, guid: 55d0a81ed93bd4322b78b5b153d8c564, type: 3}
  spriteInfoList:
  - name: ball
    frame: {x: 506, y: 502}
    uvs:
      serializedVersion: 2
      x: 0
      y: 0
      width: .245117188
      height: .494140625
    rotated: 1
  - name: bandAid
    frame: {x: 439, y: 371}
    uvs:
      serializedVersion: 2
      x: 0
      y: .494140625
      width: .181152344
      height: .428710938
    rotated: 1
  - name: door
    frame: {x: 453, y: 466}
    uvs:
      serializedVersion: 2
      x: .181152344
      y: .494140625
      width: .221191406
      height: .455078125
    rotated: 0
  - name: spike
    frame: {x: 264, y: 464}
    uvs:
      serializedVersion: 2
      x: .245117188
      y: 0
      width: .12890625
      height: .453125
    rotated: 0
  - name: candy
    frame: {x: 455, y: 475}
    uvs:
      serializedVersion: 2
      x: .374023438
      y: 0
      width: .222167969
      height: .463867188
    rotated: 0
  - name: floater
    frame: {x: 459, y: 354}
    uvs:
      serializedVersion: 2
      x: .40234375
      y: .463867188
      width: .172851562
      height: .448242188
    rotated: 1
  _maxSheetSize: 4096
